{
    "result": {
        "application_list": {
            "applications": [
                {
                    "application": [
                        {
                            "created_time": "2020-03-16 17:19:02.0",
                            "application_name": "test",
                            "access": "private",
                            "link_name": "test",
                            "time_zone": "Australia/Brisbane",
                            "dateformat": "dd-MMM-yyyy"
                        }
                    ]
                }
            ]
        },
        "application_owner": "zoho_blake265"
    }
}
